Cross validation evaluation using tidymodels
…
library(rsample)
penguins_split = rsample::initial_split(penguins, prop = 0.2)
print(penguins_split)

## <Analysis/Assess/Total>
## <69/275/344>

class(penguins_split)

## [1] "rsplit"   "mc_split"

analysis(penguins_split)

## # A tibble: 69 x 8
##    species island bill_length_mm bill_depth_mm flipper_length_… body_mass_g
##    <fct>   <fct>           <dbl>         <dbl>            <int>       <int>
##  1 Adelie  Torge…           40.3          18                195        3250
##  2 Adelie  Torge…           38.9          17.8              181        3625
##  3 Adelie  Biscoe           37.9          18.6              172        3150
##  4 Adelie  Dream            40.9          18.9              184        3900
##  5 Adelie  Dream            38.8          20                190        3950
##  6 Adelie  Dream            37            16.9              185        3000
##  7 Adelie  Dream            37.5          18.9              179        2975
##  8 Adelie  Biscoe           40.1          18.9              188        4300
##  9 Adelie  Biscoe           34.5          18.1              187        2900
## 10 Adelie  Biscoe           40.6          18.8              193        3800
## # … with 59 more rows, and 2 more variables: sex <fct>, year <int>

assessment(penguins_split)

## # A tibble: 275 x 8
##    species island bill_length_mm bill_depth_mm flipper_length_… body_mass_g
##    <fct>   <fct>           <dbl>         <dbl>            <int>       <int>
##  1 Adelie  Torge…           39.1          18.7              181        3750
##  2 Adelie  Torge…           39.5          17.4              186        3800
##  3 Adelie  Torge…           NA            NA                 NA          NA
##  4 Adelie  Torge…           36.7          19.3              193        3450
##  5 Adelie  Torge…           39.3          20.6              190        3650
##  6 Adelie  Torge…           39.2          19.6              195        4675
##  7 Adelie  Torge…           34.1          18.1              193        3475
##  8 Adelie  Torge…           42            20.2              190        4250
##  9 Adelie  Torge…           37.8          17.1              186        3300
## 10 Adelie  Torge…           37.8          17.3              180        3700
## # … with 265 more rows, and 2 more variables: sex <fct>, year <int>

## Alternatives
training(penguins_split)

## # A tibble: 69 x 8
##    species island bill_length_mm bill_depth_mm flipper_length_… body_mass_g
##    <fct>   <fct>           <dbl>         <dbl>            <int>       <int>
##  1 Adelie  Torge…           40.3          18                195        3250
##  2 Adelie  Torge…           38.9          17.8              181        3625
##  3 Adelie  Biscoe           37.9          18.6              172        3150
##  4 Adelie  Dream            40.9          18.9              184        3900
##  5 Adelie  Dream            38.8          20                190        3950
##  6 Adelie  Dream            37            16.9              185        3000
##  7 Adelie  Dream            37.5          18.9              179        2975
##  8 Adelie  Biscoe           40.1          18.9              188        4300
##  9 Adelie  Biscoe           34.5          18.1              187        2900
## 10 Adelie  Biscoe           40.6          18.8              193        3800
## # … with 59 more rows, and 2 more variables: sex <fct>, year <int>

testing(penguins_split)

## # A tibble: 275 x 8
##    species island bill_length_mm bill_depth_mm flipper_length_… body_mass_g
##    <fct>   <fct>           <dbl>         <dbl>            <int>       <int>
##  1 Adelie  Torge…           39.1          18.7              181        3750
##  2 Adelie  Torge…           39.5          17.4              186        3800
##  3 Adelie  Torge…           NA            NA                 NA          NA
##  4 Adelie  Torge…           36.7          19.3              193        3450
##  5 Adelie  Torge…           39.3          20.6              190        3650
##  6 Adelie  Torge…           39.2          19.6              195        4675
##  7 Adelie  Torge…           34.1          18.1              193        3475
##  8 Adelie  Torge…           42            20.2              190        4250
##  9 Adelie  Torge…           37.8          17.1              186        3300
## 10 Adelie  Torge…           37.8          17.3              180        3700
## # … with 265 more rows, and 2 more variables: sex <fct>, year <int>
…
When the code above is executed, nothing is really performed on the data itself. Because this object is only a “recipe”, you only record what are the steps to be applied to get a result out, but no steps are actually performed on the data yet.

If you want to get the transformed training data, you can use the prep and bake functions. The prep function updates the recipe with some estimates after the transformation is applied. The bake function extracts the final training set as a data.frame/tibble.

penguins_prep = penguins_rec %>% prep()
penguins_prep %>% class()

## [1] "recipe"

penguins_prep %>% bake(new_data = NULL)

## # A tibble: 69 x 8
##    island bill_length_mm bill_depth_mm flipper_length_… body_mass_g sex    year
##    <fct>           <dbl>         <dbl>            <int>       <int> <fct> <int>
##  1 Torge…           40.3          18                195        3250 fema…  2007
##  2 Torge…           38.9          17.8              181        3625 fema…  2007
##  3 Biscoe           37.9          18.6              172        3150 fema…  2007
##  4 Dream            40.9          18.9              184        3900 male   2007
##  5 Dream            38.8          20                190        3950 male   2007
##  6 Dream            37            16.9              185        3000 fema…  2007
##  7 Dream            37.5          18.9              179        2975 fema…  2007
##  8 Biscoe           40.1          18.9              188        4300 male   2008
##  9 Biscoe           34.5          18.1              187        2900 fema…  2008
## 10 Biscoe           40.6          18.8              193        3800 male   2008
## # … with 59 more rows, and 1 more variable: species <fct>
…
rf_model = rand_forest() %>%
  set_args(trees = 100) %>% 
  set_engine("randomForest") %>% 
  set_mode("classification")

penguins_rf = rf_model %>% 
  fit(formula = species ~ ., data = penguins_train)

penguins_pred = penguins_test %>% bind_cols(
  predict(penguins_rf, new_data = penguins_test, type = "class"), 
  predict(penguins_rf, new_data = penguins_test, type = "prob"))

penguins_pred

## # A tibble: 275 x 12
##    island bill_length_mm bill_depth_mm flipper_length_… body_mass_g sex    year
##    <fct>           <dbl>         <dbl>            <int>       <int> <fct> <int>
##  1 Torge…           39.1          18.7              181        3750 male   2007
##  2 Torge…           39.5          17.4              186        3800 fema…  2007
##  3 Torge…           38.6          18.6              190        3775 fema…  2007
##  4 Torge…           36.7          19.3              193        3450 fema…  2007
##  5 Torge…           39.3          20.6              190        3650 male   2007
##  6 Torge…           39.2          19.6              195        4675 male   2007
##  7 Torge…           34.1          18.1              193        3475 fema…  2007
##  8 Torge…           42            20.2              190        4250 male   2007
##  9 Torge…           37.8          17.1              186        3300 fema…  2007
## 10 Torge…           37.8          17.3              180        3700 fema…  2007
## # … with 265 more rows, and 5 more variables: species <fct>, .pred_class <fct>,
## #   .pred_Adelie <dbl>, .pred_Chinstrap <dbl>, .pred_Gentoo <dbl>
…
